{
  "relationships": [
    {
      "relationshipId": 1,
      "relationshipName": "municipio",
      "relationshipNameCapitalized": "Municipio",
      "relationshipFieldName": "municipio",
      "otherEntityName": "municipio",
      "otherEntityNameCapitalized": "Municipio",
      "relationshipType": "one-to-one",
      "ownerSide": false,
      "otherEntityRelationshipName": "estado"
    }
  ],
  "fields": [
    {
      "fieldId": 1,
      "fieldName": "nombre",
      "fieldType": "String",
      "fieldNameCapitalized": "Nombre",
      "fieldNameUnderscored": "nombre",
      "fieldInJavaBeanMethod": "Nombre",
      "fieldValidate": true,
      "fieldValidateRules": [
        "required"
      ]
    }
  ],
  "fieldsContainOwnerOneToOne": false,
  "fieldsContainOwnerManyToMany": false,
  "fieldsContainOneToMany": false,
  "fieldsContainLocalDate": false,
  "fieldsContainCustomTime": false,
  "fieldsContainBigDecimal": false,
  "fieldsContainDateTime": false,
  "fieldsContainDate": false,
  "changelogDate": "20150706185831",
  "dto": "mapstruct",
  "pagination": "pager",
  "validation": true
}