{
  "relationships": [
    {
      "relationshipId": 1,
      "relationshipName": "cuenta",
      "relationshipNameCapitalized": "Cuenta",
      "relationshipFieldName": "cuenta",
      "otherEntityName": "cuenta",
      "otherEntityNameCapitalized": "Cuenta",
      "relationshipType": "many-to-one",
      "otherEntityField": "id"
    },
    {
      "relationshipId": 2,
      "relationshipName": "caja",
      "relationshipNameCapitalized": "Caja",
      "relationshipFieldName": "caja",
      "otherEntityName": "caja",
      "relationshipType": "one-to-one",
      "otherEntityNameCapitalized": "Caja",
      "ownerSide": true
    },
    {
      "relationshipId": 3,
      "relationshipName": "tipoPago",
      "relationshipNameCapitalized": "TipoPago",
      "relationshipFieldName": "tipoPago",
      "otherEntityName": "tipoPago",
      "relationshipType": "one-to-one",
      "otherEntityNameCapitalized": "TipoPago",
      "ownerSide": true
    },
    {
      "relationshipId": 4,
      "relationshipName": "pagoReferenciado",
      "relationshipNameCapitalized": "PagoReferenciado",
      "relationshipFieldName": "pagoReferenciado",
      "otherEntityName": "pagoReferenciado",
      "otherEntityNameCapitalized": "PagoReferenciado",
      "relationshipType": "one-to-one",
      "ownerSide": false,
      "otherEntityRelationshipName": "pago"
    }
  ],
  "fields": [
    {
      "fieldId": 1,
      "fieldName": "numeroPago",
      "fieldType": "Integer",
      "fieldNameCapitalized": "NumeroPago",
      "fieldNameUnderscored": "numero_pago",
      "fieldInJavaBeanMethod": "NumeroPago",
      "fieldValidate": true,
      "fieldValidateRules": [
        "required"
      ]
    },
    {
      "fieldId": 2,
      "fieldName": "monto",
      "fieldType": "BigDecimal",
      "fieldNameCapitalized": "Monto",
      "fieldNameUnderscored": "monto",
      "fieldInJavaBeanMethod": "Monto",
      "fieldValidate": true,
      "fieldValidateRules": [
        "required"
      ]
    },
    {
      "fieldId": 3,
      "fieldName": "fechaPago",
      "fieldType": "LocalDate",
      "fieldNameCapitalized": "FechaPago",
      "fieldNameUnderscored": "fecha_pago",
      "fieldInJavaBeanMethod": "FechaPago",
      "fieldValidate": true,
      "fieldValidateRules": [
        "required"
      ]
    },
    {
      "fieldId": 4,
      "fieldName": "numeroRecibo",
      "fieldType": "String",
      "fieldNameCapitalized": "NumeroRecibo",
      "fieldNameUnderscored": "numero_recibo",
      "fieldInJavaBeanMethod": "NumeroRecibo",
      "fieldValidate": true,
      "fieldValidateRules": [
        "required"
      ]
    }
  ],
  "fieldsContainOwnerOneToOne": true,
  "fieldsContainOwnerManyToMany": false,
  "fieldsContainOneToMany": false,
  "fieldsContainLocalDate": true,
  "fieldsContainCustomTime": true,
  "fieldsContainBigDecimal": true,
  "fieldsContainDateTime": false,
  "fieldsContainDate": false,
  "changelogDate": "20150706185831",
  "dto": "mapstruct",
  "pagination": "pager",
  "validation": true
}