* autocomplete
    modificar angucomplete-alt.js
     $http.get(url+str+"*")
              .success(httpSuccessCallbackGen(str))
              .error(httpErrorCallback);
          }

     en funcion
     getRemoteResults


* en cliente-dialog.html, cuenta-dialog.html
     sustituir las formas de autocomplet por la direccion del servidor de donde se enceutnra
 <div angucomplete-alt id="cliente.municipioNombre"
                         name="cliente.municipioNombre" placeholder="Municipios" pause="500"
                         selected-object="municipioSelected"
                         remote-url="http://127.0.0.1:8080/api/_search/municipios/"
                         remote-url-request-formatter="remoteUrlRequestFn" remote-url-data-field="" title-field="nombre"
                         description-field="" minlength="2" input-class="form-control form-control-small"
                         match-class="highlight" initial-value="initialMunicipioSelected" >
                    </div>


