{
  "relationships": [
    {
      "relationshipId": 1,
      "relationshipName": "municipio",
      "relationshipNameCapitalized": "Municipio",
      "relationshipFieldName": "municipio",
      "otherEntityName": "municipio",
      "relationshipType": "one-to-many",
      "otherEntityNameCapitalized": "Municipio",
      "otherEntityRelationshipName": "estado"
    }
  ],
  "fields": [
    {
      "fieldId": 1,
      "fieldName": "nombre",
      "fieldNameCapitalized": "Nombre",
      "fieldNameUnderscored": "nombre",
      "fieldInJavaBeanMethod": "Nombre",
      "fieldValidate": true,
      "fieldType": "String",
      "fieldIsEnum": false,
      "fieldValidateRules": [
        "required"
      ]
    },
    {
      "fieldId": 2,
      "fieldName": "region",
      "fieldNameCapitalized": "Region",
      "fieldNameUnderscored": "region",
      "fieldInJavaBeanMethod": "Region",
      "fieldValidate": false,
      "fieldType": "RegionType",
      "fieldIsEnum": true,
      "fieldValues": "PACIFICO,NORTE,CENTRO_SUR"
    }
  ],
  "fieldsContainOwnerOneToOne": false,
  "fieldsContainOwnerManyToMany": false,
  "fieldsContainOneToMany": true,
  "fieldsContainLocalDate": false,
  "fieldsContainCustomTime": false,
  "fieldsContainBigDecimal": false,
  "fieldsContainDateTime": false,
  "fieldsContainDate": false,
  "changelogDate": "20150707175930",
  "dto": "mapstruct",
  "pagination": "pager",
  "validation": true
}